[
  {"insult":"You fight like a Dairy Farmer!", "reply": "How appropriate! You fight like a cow!"},
  {"insult":"This is the END for you, you gutter crawling cur!", "reply": "And I've got a little TIP for you, get the POINT?"},
  {"insult":"I've spoken with apes more polite than you!", "reply": "I'm glad to hear you attended your family reunion!"},
  {"insult":"Soon you'll be wearing my sword like a shish kebab!", "reply": "First you better stop waving it about like a feather duster."},
  {"insult":"People fall at my feet when they see me coming!", "reply": "Even BEFORE they smell your breath?"},
  {"insult":"I'm not going to take your insolence sitting down!", "reply": "Your hemorroids are flaring up again eh?"},
  {"insult":"I once owned a dog that was smarter than you.", "reply": "He must have taught you everything you know."},
  {"insult":"Nobody's ever drawn blood from me and nobody ever will.", "reply": "You run THAT fast?"},
  {"insult":"Have you stopped wearing diapers yet?", "reply": "Why? Did you want to borrow one?"},
  {"insult":"There are no words for how disgusting you are.", "reply": "Yes there are. You just never learned them."},
  {"insult":"You make me want to puke.", "reply": "You make me think somebody already did."},
  {"insult":"My handkerchief will wipe up your blood!", "reply": "So you got that job as janitor, after all."},
  {"insult":"I got this scar on my face during a mighty struggle!", "reply": "I hope now you've learned to stop picking your nose."},
  {"insult":"I've heard you are a contemptible sneak.", "reply": "Too bad no one's ever heard of YOU at all."},
  {"insult":"You're no match for my brains, you poor fool.", "reply": "I'd be in real trouble if you ever used them."},
  {"insult":"You have the manners of a beggar.", "reply": "I wanted to make sure you'd feel comfortable with me."},
  {"insult":"Now I know what filth and stupidity really are.", "reply": "I'm glad to hear you attended your family reunion."},
  {"insult":"Every word you say to me is stupid.", "reply": "I wanted to make sure you'd feel comfortable with me."},
  {"insult":"I've got a long, sharp lesson for you to learn today.", "reply": "And I've got a little TIP for you. Get the POINT?"},
  {"insult":"I will milk every drop of blood from your body!", "reply": "How appropriate, you fight like a cow!"},
  {"insult":"I've got the courage and skill of a master swordsman.", "reply": "I'd be in real trouble if you ever used them."},
  {"insult":"My tongue is sharper than any sword", "reply": "First, you'd better stop waving it like a feather-duster."},
  {"insult":"My name is feared in every dirty corner of this island!", "reply": "So you got that job as a janitor, after all."},
  {"insult":"My wisest enemies run away at the first sight of me!", "reply": "Even BEFORE they smell your breath?"},
  {"insult":"Only once have I met such a coward!", "reply": "He must have taught you everything you know."},
  {"insult":"If your brother's like you, better to marry a pig.", "reply": "You make me think somebody already did."},
  {"insult":"No one will ever catch ME fighting as badly as you do.", "reply": "You run THAT fast?"},
  {"insult":"My last fight ended with my hands covered with blood.", "reply": "I hope now you've learned to stop picking your nose."},
  {"insult":"I hope you have a boat ready for a quick escape.", "reply": "Why, did you want to borrow one?"},
  {"insult":"My sword is famous all over the Caribbean!", "reply": "Too bad no one's ever heard of YOU at all."},
  {"insult":"You are a pain in the backside, sir!", "reply": "Your hemorrhoids are flaring up again, eh?"},
  {"insult":"I usually see people like you passed-out on tavern floor.", "reply": "1. Even BEFORE they smell your breath?"},
  {"insult":"There are no clever moves that can help you now.", "reply": "Yes there are. You just never learned them."},
  {"insult":"Every enemy I've met I've annihilated!", "reply": "My attacks have left entire islands depopulated!"},
  {"insult":"You're as repulsive as a monkey in a negligee.", "reply": "You have the sex appeal of a Shar-Pei."},
  {"insult":"Killing you would be justifiable homicide!", "reply": "When I'm done, your body will be rotted and putrified!"},
  {"insult":"You're the ugliest monster ever created!", "reply": "Your looks would make pigs nauseated."},
  {"insult":"I'll skewer you like a sow at a buffet!", "reply": "Your lips look like they belong on catch of the day!"},
  {"insult":"Would you like to be buried, or cremated?", "reply": "I give you a choice. You can be gutted, or decapitated!"},
  {"insult":"Coming face to face with me must leave you petrified!", "reply": "Never before have I seen someone so sissified!"},
  {"insult":"When your father first saw you, he must have been mortified!", "reply": "You're a disgrace to your species, you're so undignified!"},
  {"insult":"You can't match my witty repartee!", "reply": "Nothing can stop me from blowing you away!"},
  {"insult":"I have never seen such clumsy swordplay!", "reply": "I have never lost to a melee!"},
  {"insult":"En garde! Touché!", "reply": "Your mother wears a toupee!"},
  {"insult":"Throughout the Caribbean, my great deeds are celebrated!", "reply": "My skills with a sword are highly venerated!"},
  {"insult":"I can't rest 'til you've been exterminated!", "reply": "Your stench would make an outhouse cleaner irritated!"},
  {"insult":"I'll leave you devasted, mutilated, and perforated!", "reply": "I can't tell you which of my traits leaves you most intimidated."},
  {"insult":"Heaven preserve me! You look like something that's died!", "reply": "Nothing on this Earth can save your sorry hide!"},
  {"insult":"I'll hound you night and day!", "reply": "You'll find I am dogged and relentless to my prey!"}
]
